ds202_hw5
…
Days<- max(countDay)
Days

## [1] 5873

Explaination: Accidents are happening almost on a daily basis.

countHour <- count(accident,HOUR) 
countHour

## # A tibble: 25 x 2
##     HOUR     n
##    <int> <int>
##  1     0  1321
##  2     1  1177
##  3     2  1241
##  4     3   957
##  5     4   813
##  6     5  1065
##  7     6  1282
##  8     7  1162
##  9     8   945
## 10     9   929
## #  with 15 more rows
…
Weekends have a higher rate of accidents

h

## # A tibble: 25 x 2
##     HOUR     h
##    <int> <int>
##  1     0  1739
##  2     1  1509
##  3     2  1635
##  4     3  1228
##  5     4  1078
##  6     5  1537
##  7     6  1959
##  8     7  1896
##  9     8  1528
## 10     9  1564
## #  with 15 more rows
…
